{
  //Authentication Server configuration file
  //authentication server properties
  "server": {
    //authentication server url namespace
    "href": "/api/healthcheck",
    //protocol: http or https
    "protocol": "http",
    //authentication server listening port
    "port": "3000",
    //secret key file, for https
    "key": "./config/server.key",
    //certificate
    "cert": "./config/server.crt",
    "routes": "./../../../../routes",
    //how do you manage what applications each user has access to
    // internal - please setup file application.json on config dir
    // external - a web service will be called
    "domain": ".vf-pt.internal.vodafone.com"
  },
  //
  "api": {
    //endpoint for accepting authorization requests
    "api_url": "/api/reference-data-api",
    "reference_data": "/reference_data",
    "systems": "/systems",
    "healthcheck": "/healthcheck",
    //secret for jwt token generation
    "token_secret": "/run/secrets/node_token_secret",
    "token_audience": [
      "Reference Data",
      "Field Service"
    ]
  },
  //applies only to external authorization_mode
  "integrationServer": {
    //protocol: http or https
    "protocol": "https",
    //hostname without protocol
    "host": "ptwmt0vr.vf-pt.internal.vodafone.com",
    //host port
    "port": "7000",
    "https_port": "7100",
    //user and password
    "auth": "/run/secrets/is_authentication_refData",
    "isAuthUser": "referenceDataApi",
    //requests timeout
    "timeout": 10000,
    //web service endpoint
    "apps": "/rest/security/authorization/_pub/",
    "cas": [
      "/server/certs/VodafoneInternalCA.pem",
      "/server/certs/VodafoneInternalRootCA.pem"
    ],
    "environment": "vdf",
    "reference_data": "/rest/wmextension/referenceData/_pub",
    "systems": "/rest/wmextension/referenceData/systems/_pub",
    "find": "/rest/wmextension/referenceData/find/_pub"
  }
}